<svg width="78" height="78" viewBox="0 0 78 78" fill="none" xmlns="http://www.w3.org/2000/svg">
<path d="M73.8234 4.61297C73.558 4.32489 73.1641 4.1925 72.7782 4.26258L62.7204 6.09132C62.0995 6.20421 61.6875 6.79926 61.8004 7.42022C61.9133 8.04132 62.5074 8.45341 63.1293 8.34022L69.6975 7.146L53.6849 19.7273C53.1886 20.1173 53.1025 20.8359 53.4923 21.3321C53.7178 21.619 54.0531 21.7689 54.3918 21.7689C54.639 21.7689 54.8878 21.6891 55.0971 21.5247L70.7724 9.20843L69.1358 15.3005C68.972 15.9102 69.3334 16.5371 69.9429 16.7009C70.0424 16.7275 70.142 16.7403 70.2403 16.7403C70.7447 16.7403 71.2063 16.4038 71.3432 15.8937L74.0862 5.68365C74.1881 5.30522 74.0886 4.90121 73.8234 4.61297Z" fill="#EC2227"/>
<path d="M76.8149 0H34.8854C34.2542 0 33.7425 0.511571 33.7425 1.14288C33.7425 1.7742 34.2542 2.28577 34.8854 2.28577H75.6719V49.3736H42.5582V36.627C42.5582 35.9957 42.0466 35.4841 41.4153 35.4841H18.3808V2.28577H26.8089C27.44 2.28577 27.9518 1.7742 27.9518 1.14288C27.9518 0.511571 27.44 0 26.8087 0H17.2377C16.6066 0 16.0948 0.511571 16.0948 1.14288V35.4841H1.18522C0.554059 35.4841 0.0423355 35.9957 0.0423355 36.627V76.8571C0.0423355 77.4884 0.554059 78 1.18522 78H41.4155C42.0468 78 42.5584 77.4884 42.5584 76.8571V70.5354C42.5584 69.9041 42.0468 69.3926 41.4155 69.3926C40.7842 69.3926 40.2726 69.9041 40.2726 70.5354V75.7142H2.32795V37.7699H40.2723V62.3419C40.2723 62.9732 40.7839 63.4848 41.4152 63.4848C42.0465 63.4848 42.5581 62.9732 42.5581 62.3419V51.6593H76.8149C77.4462 51.6593 77.9578 51.1477 77.9578 50.5164V1.14288C77.9576 0.511571 77.4461 0 76.8149 0Z" fill="#EC2227"/>
</svg>
