<svg width="50" height="50" viewBox="0 0 50 50" fill="none" xmlns="http://www.w3.org/2000/svg">
<path d="M42.1569 26.4706H48.5294C49.3416 26.4706 50 25.8122 50 25C50 24.1878 49.3416 23.5294 48.5294 23.5294H42.1569C42.1569 22.1507 42.1569 15.3552 42.1569 13.9216H48.5294C49.3416 13.9216 50 13.2631 50 12.451C50 11.6388 49.3416 10.9804 48.5294 10.9804H42.1569C42.1569 10.6095 42.1569 9.75892 42.1569 9.31373C42.1569 8.50157 41.4984 7.84314 40.6863 7.84314C40.2411 7.84314 39.3903 7.84314 39.0196 7.84314V1.47059C39.0196 0.658431 38.3612 0 37.549 0C36.7369 0 36.0784 0.658431 36.0784 1.47059V7.84314C34.6438 7.84314 27.8482 7.84314 26.4706 7.84314V1.47059C26.4706 0.658431 25.8122 0 25 0C24.1878 0 23.5294 0.658431 23.5294 1.47059V7.84314C22.1507 7.84314 15.3552 7.84314 13.9216 7.84314V1.47059C13.9216 0.658431 13.2631 0 12.451 0C11.6388 0 10.9804 0.658431 10.9804 1.47059V7.84314C10.6095 7.84314 9.75892 7.84314 9.31373 7.84314C8.50157 7.84314 7.84314 8.50157 7.84314 9.31373V10.9804H1.47059C0.658431 10.9804 0 11.6388 0 12.451C0 13.2631 0.658431 13.9216 1.47059 13.9216H7.84314V23.5294H1.47059C0.658431 23.5294 0 24.1878 0 25C0 25.8122 0.658431 26.4706 1.47059 26.4706H7.84314V36.0784H1.47059C0.658431 36.0784 0 36.7369 0 37.549C0 38.3612 0.658431 39.0196 1.47059 39.0196H7.84314V40.6863C7.84314 41.4984 8.50157 42.1569 9.31373 42.1569H10.9804V48.5294C10.9804 49.3416 11.6388 50 12.451 50C13.2631 50 13.9216 49.3416 13.9216 48.5294V42.1569H23.5294V48.5294C23.5294 49.3416 24.1878 50 25 50C25.8122 50 26.4706 49.3416 26.4706 48.5294V42.1569H36.0784V48.5294C36.0784 49.3416 36.7369 50 37.549 50C38.3612 50 39.0196 49.3416 39.0196 48.5294V42.1569H40.6863C41.4984 42.1569 42.1569 41.4984 42.1569 40.6863C42.1569 40.2411 42.1569 39.3903 42.1569 39.0196H48.5294C49.3416 39.0196 50 38.3612 50 37.549C50 36.7369 49.3416 36.0784 48.5294 36.0784H42.1569C42.1569 34.6438 42.1569 27.8482 42.1569 26.4706ZM35.8824 10.7843H39.2157V14.1176H35.8824V10.7843ZM10.7843 10.7843H14.1182L14.1195 14.1175C14.1097 14.1192 13.5719 14.1176 10.7843 14.1176V10.7843ZM14.1176 39.2157H10.7843V35.8824H14.1176V39.2157ZM39.2157 39.2157H35.8824V35.8824H39.2157V39.2157ZM35.8824 32.9412C34.2606 32.9412 32.9412 34.2606 32.9412 35.8824V39.2157H17.0588V35.8824C17.0588 34.2606 15.7394 32.9412 14.1176 32.9412H10.7843V17.0588H14.1176C15.7394 17.0588 17.0588 15.7394 17.0588 14.1176V10.7843H32.9412V14.1176C32.9412 15.7394 34.2606 17.0588 35.8824 17.0588H39.2161C39.2166 24.1804 39.2153 4.71304 39.2171 32.9412H35.8824Z" fill="#EC2227"/>
<path d="M28.2352 18.8237H21.7647C20.1429 18.8237 18.8235 20.1431 18.8235 21.7649V28.2355C18.8235 29.8572 20.1429 31.1767 21.7647 31.1767H28.2352C29.857 31.1767 31.1764 29.8572 31.1764 28.2355V21.7649C31.1764 20.1431 29.857 18.8237 28.2352 18.8237ZM28.2352 28.2355H21.7647V21.7649H28.2352C28.2371 28.3706 28.245 28.2355 28.2352 28.2355Z" fill="#EC2227"/>
</svg>
