<svg width="50" height="50" viewBox="0 0 50 50" fill="none" xmlns="http://www.w3.org/2000/svg">
<path d="M47.0703 32.5762V30.8594C47.0703 25.2054 42.4704 20.6055 36.8164 20.6055C36.319 20.6055 35.8302 20.6418 35.3516 20.7105C35.3516 17.9102 35.3516 2.06279 35.3516 1.46484C35.3516 0.655859 34.6957 0 33.8867 0H1.46484C0.655859 0 0 0.655859 0 1.46484C0 3.22158 0 35.9258 0 36.7188C0 37.5277 0.655859 38.1836 1.46484 38.1836H23.6328V45.6055C23.6328 48.0286 25.6042 50 28.0273 50H45.6055C48.0286 50 50 48.0286 50 45.6055V36.7188C50 34.8091 48.7753 33.1809 47.0703 32.5762ZM36.8164 23.5352C40.855 23.5352 44.1406 26.8208 44.1406 30.8594V32.3242H41.2109V30.8594C41.2109 28.4362 39.2396 26.4648 36.8164 26.4648C34.3933 26.4648 32.4219 28.4362 32.4219 30.8594V32.3242H29.4922V30.8594C29.4922 26.8208 32.7778 23.5352 36.8164 23.5352ZM38.2812 30.8594V32.3242H35.3516V30.8594C35.3516 30.0517 36.0087 29.3945 36.8164 29.3945C37.6241 29.3945 38.2812 30.0517 38.2812 30.8594ZM2.92969 2.92969H32.4219V11.8164H2.92969V2.92969ZM2.92969 14.7461H32.4219V21.5962C31.3911 22.0871 30.455 22.7452 29.648 23.5352H2.92969V14.7461ZM23.8848 35.2539H2.92969V26.4551H27.5532C27.1193 27.3661 26.8162 28.3605 26.6676 29.3945H25.0977C24.2887 29.3945 23.6328 30.0504 23.6328 30.8594C23.6328 31.6684 24.2887 32.3242 25.0977 32.3242H26.5625V32.5762C25.316 33.0183 24.3269 34.0074 23.8848 35.2539ZM47.0703 45.6055C47.0703 46.4132 46.4132 47.0703 45.6055 47.0703H28.0273C27.2196 47.0703 26.5625 46.4132 26.5625 45.6055V36.7188C26.5625 35.911 27.2196 35.2539 28.0273 35.2539C32.06 35.2539 42.068 35.2539 45.6055 35.2539C46.4132 35.2539 47.0703 35.911 47.0703 36.7188V45.6055Z" fill="#EC2227"/>
<path d="M36.8164 38.1836C36.0074 38.1836 35.3516 38.8395 35.3516 39.6484V42.6758C35.3516 43.4848 36.0074 44.1406 36.8164 44.1406C37.6254 44.1406 38.2812 43.4848 38.2812 42.6758V39.6484C38.2812 38.8395 37.6254 38.1836 36.8164 38.1836Z" fill="#EC2227"/>
<path d="M10.2539 5.85938H7.32422C6.51523 5.85938 5.85938 6.51523 5.85938 7.32422C5.85938 8.1332 6.51523 8.78906 7.32422 8.78906H10.2539C11.0629 8.78906 11.7188 8.1332 11.7188 7.32422C11.7188 6.51523 11.0629 5.85938 10.2539 5.85938Z" fill="#EC2227"/>
<path d="M19.2383 5.85938H16.1133C15.3043 5.85938 14.6484 6.51523 14.6484 7.32422C14.6484 8.1332 15.3043 8.78906 16.1133 8.78906H19.2383C20.0473 8.78906 20.7031 8.1332 20.7031 7.32422C20.7031 6.51523 20.0473 5.85938 19.2383 5.85938Z" fill="#EC2227"/>
<path d="M28.0273 5.85938H25.0977C24.2887 5.85938 23.6328 6.51523 23.6328 7.32422C23.6328 8.1332 24.2887 8.78906 25.0977 8.78906H28.0273C28.8363 8.78906 29.4922 8.1332 29.4922 7.32422C29.4922 6.51523 28.8363 5.85938 28.0273 5.85938Z" fill="#EC2227"/>
<path d="M10.2539 17.6758H7.32422C6.51523 17.6758 5.85938 18.3316 5.85938 19.1406C5.85938 19.9496 6.51523 20.6055 7.32422 20.6055H10.2539C11.0629 20.6055 11.7188 19.9496 11.7188 19.1406C11.7188 18.3316 11.0629 17.6758 10.2539 17.6758Z" fill="#EC2227"/>
<path d="M19.2383 17.6758H16.1133C15.3043 17.6758 14.6484 18.3316 14.6484 19.1406C14.6484 19.9496 15.3043 20.6055 16.1133 20.6055H19.2383C20.0473 20.6055 20.7031 19.9496 20.7031 19.1406C20.7031 18.3316 20.0473 17.6758 19.2383 17.6758Z" fill="#EC2227"/>
<path d="M28.0273 17.6758H25.0977C24.2887 17.6758 23.6328 18.3316 23.6328 19.1406C23.6328 19.9496 24.2887 20.6055 25.0977 20.6055H28.0273C28.8363 20.6055 29.4922 19.9496 29.4922 19.1406C29.4922 18.3316 28.8363 17.6758 28.0273 17.6758Z" fill="#EC2227"/>
<path d="M10.2539 29.3945H7.32422C6.51523 29.3945 5.85938 30.0504 5.85938 30.8594C5.85938 31.6684 6.51523 32.3242 7.32422 32.3242H10.2539C11.0629 32.3242 11.7188 31.6684 11.7188 30.8594C11.7188 30.0504 11.0629 29.3945 10.2539 29.3945Z" fill="#EC2227"/>
<path d="M19.2383 29.3945H16.1133C15.3043 29.3945 14.6484 30.0504 14.6484 30.8594C14.6484 31.6684 15.3043 32.3242 16.1133 32.3242H19.2383C20.0473 32.3242 20.7031 31.6684 20.7031 30.8594C20.7031 30.0504 20.0473 29.3945 19.2383 29.3945Z" fill="#EC2227"/>
</svg>
