<svg width="50" height="50" viewBox="0 0 50 50" fill="none" xmlns="http://www.w3.org/2000/svg">
<path d="M45.6055 26.4648H43.2825L36.436 19.6184C37.4968 18.8153 38.1836 17.5432 38.1836 16.1133C38.1836 14.2035 36.9591 12.5743 35.2539 11.9697V11.4667C36.9589 10.862 38.1836 9.23379 38.1836 7.32412C38.1836 4.90098 36.2122 2.92959 33.7891 2.92959H11.4668C10.8621 1.22471 9.23389 0 7.32422 0C4.90107 0 2.92969 1.97139 2.92969 4.39453V41.4629C1.22471 42.0676 0 43.6958 0 45.6055V48.5352C0 49.3441 0.655859 50 1.46484 50H13.1836C13.9926 50 14.6484 49.3441 14.6484 48.5352V45.6055C14.6484 43.6958 13.4237 42.0676 11.7188 41.4629V11.7188H32.3242V13.1836C32.3242 13.9926 32.9801 14.6484 33.7891 14.6484C34.5968 14.6484 35.2539 15.3056 35.2539 16.1133C35.2539 16.921 34.5968 17.5781 33.7891 17.5781C32.9813 17.5781 32.3242 16.921 32.3242 16.1133C32.3242 15.3043 31.6684 14.6484 30.8594 14.6484C30.0504 14.6484 29.3945 15.3043 29.3945 16.1133C29.3945 17.5478 30.0855 18.8236 31.152 19.6262L24.3885 26.4648H21.9727C19.5495 26.4648 17.5781 28.4362 17.5781 30.8594V45.6055C17.5781 48.0286 19.5495 50 21.9727 50H45.6055C48.0286 50 50 48.0286 50 45.6055V30.8594C50 28.4362 48.0286 26.4648 45.6055 26.4648ZM5.85938 4.39453C5.85938 3.58682 6.5165 2.92969 7.32422 2.92969C8.13193 2.92969 8.78906 3.58682 8.78906 4.39453V41.2109H5.85938V4.39453ZM11.7188 47.0703H2.92969V45.6055C2.92969 44.7978 3.58682 44.1406 4.39453 44.1406H10.2539C11.0616 44.1406 11.7188 44.7978 11.7188 45.6055V47.0703ZM29.6465 8.78906H11.7188V5.84961H29.6465C29.4839 6.30811 29.3945 6.81074 29.3945 7.32422C29.3945 7.8377 29.4839 8.33057 29.6465 8.78906ZM33.7891 8.78906C32.9813 8.78906 32.3242 8.13193 32.3242 7.32422C32.3242 6.5165 32.9813 5.85938 33.7891 5.85938C34.5968 5.85938 35.2539 6.5165 35.2539 7.32422C35.2539 8.13193 34.5968 8.78906 33.7891 8.78906ZM33.7948 21.1203L39.1394 26.4648H28.509L33.7948 21.1203ZM20.5078 30.8594C20.5078 30.0517 21.1649 29.3945 21.9727 29.3945H41.2109V32.3242H20.5078V30.8594ZM47.0703 45.6055C47.0703 46.4132 46.4132 47.0703 45.6055 47.0703H21.9727C21.1649 47.0703 20.5078 46.4132 20.5078 45.6055V35.2539H47.0703V45.6055ZM47.0703 32.3242H44.1406V29.3945H45.6055C46.4132 29.3945 47.0703 30.0517 47.0703 30.8594V32.3242Z" fill="#EC2227"/>
</svg>
