<svg width="60" height="60" viewBox="0 0 60 60" fill="none" xmlns="http://www.w3.org/2000/svg">
<g clip-path="url(#clip0)">
<path d="M12.5003 45H2.50056C1.12581 45 6.10352e-05 46.1257 6.10352e-05 47.4997V57.5002C6.10352e-05 58.8742 1.12581 60 2.50056 60H12.5003C13.8743 60 15 58.8742 15 57.5002V47.4997C15 46.1257 13.8743 45 12.5003 45ZM9.99979 54.9997H5.0003V50.0002H9.99979V54.9997Z" fill="#EC2227"/>
<path d="M32.5002 45H22.5005C21.1257 45 20 46.1257 20 47.4997V57.5002C20 58.8742 21.1257 60 22.5005 60H32.5002C33.8742 60 35 58.8742 35 57.5002V47.4997C35 46.1257 33.8742 45 32.5002 45ZM29.9997 54.9997H25.0002V50.0002H29.9997V54.9997Z" fill="#EC2227"/>
<path d="M52.5002 45H42.5005C41.1257 45 40 46.1257 40 47.4997V57.5002C40 58.8742 41.1257 60 42.5005 60H52.5002C53.8742 60 55 58.8742 55 57.5002V47.4997C55 46.1257 53.8742 45 52.5002 45ZM50.0005 54.9997H45.0002V50.0002H50.0005V54.9997Z" fill="#EC2227"/>
<path d="M12.5003 25.0005H2.50056C1.12581 25.0005 6.10352e-05 26.1262 6.10352e-05 27.5002V37.5C6.10352e-05 38.8747 1.12581 40.0005 2.50056 40.0005H12.5003C13.8743 40.0005 15 38.8747 15 37.5V27.5002C15 26.1262 13.8743 25.0005 12.5003 25.0005ZM9.99979 35.0002H5.0003V30.0007H9.99979V35.0002Z" fill="#EC2227"/>
<path d="M32.5002 25.0005H22.5005C21.1257 25.0005 20 26.1262 20 27.5002V37.5C20 38.8747 21.1257 40.0005 22.5005 40.0005H32.5002C33.8742 40.0005 35 38.8747 35 37.5V27.5002C35 26.1262 33.8742 25.0005 32.5002 25.0005ZM29.9997 35.0002H25.0002V30.0007H29.9997V35.0002Z" fill="#EC2227"/>
<path d="M58.8433 34.2509L55.0153 25.0102C54.4903 23.7412 53.021 23.1307 51.7513 23.658L42.5106 27.486C41.2416 28.0132 40.6333 29.4832 41.1576 30.7522L44.9856 39.9899C45.5106 41.2597 46.9798 41.8679 48.2518 41.3429L57.4895 37.5149C58.76 36.9899 59.3675 35.5199 58.8433 34.2509ZM48.6478 35.7667L46.7338 31.1474L51.3523 29.2334L53.2663 33.8527L48.6478 35.7667Z" fill="#EC2227"/>
<path d="M12.5003 5.00098H2.50056C1.12581 5.00098 6.10352e-05 6.12672 6.10352e-05 7.50072V17.5005C6.10352e-05 18.8752 1.12581 20.0009 2.50056 20.0009H12.5003C13.8743 20.0009 15 18.8752 15 17.5005V7.50072C15 6.12672 13.8743 5.00098 12.5003 5.00098ZM9.99979 15.0007H5.0003V10.0012H9.99979V15.0007Z" fill="#EC2227"/>
<path d="M34.9893 7.48605L25.7486 3.65806C24.4796 3.13081 23.0096 3.74056 22.4823 5.01031L18.6566 14.248C18.1293 15.5178 18.7391 16.99 20.0096 17.5143L29.2473 21.3423C30.5163 21.8695 31.9886 21.2598 32.5136 19.9893L36.3416 10.7515C36.8665 9.48405 36.259 8.0118 34.9893 7.48605ZM28.8521 15.7675L24.2328 13.8528L26.1476 9.2343L30.7661 11.1483L28.8521 15.7675Z" fill="#EC2227"/>
<path d="M59.2711 7.801L52.2009 0.72851C51.2296 -0.243488 49.6374 -0.243488 48.6661 0.72851L41.5951 7.801C40.6239 8.77299 40.6239 10.3645 41.5951 11.3365L48.6661 18.409C49.6374 19.381 51.2296 19.381 52.2009 18.409L59.2711 11.3365C60.2431 10.3645 60.2431 8.77299 59.2711 7.801ZM50.4339 13.1042L46.8984 9.56949L50.4339 6.034L53.9686 9.56949L50.4339 13.1042Z" fill="#EC2227"/>
</g>
<defs>
<clipPath id="clip0">
<rect width="60" height="60" fill="white"/>
</clipPath>
</defs>
</svg>
