<svg width="39" height="39" viewBox="0 0 39 39" fill="none" xmlns="http://www.w3.org/2000/svg">
<circle cx="19.5" cy="19.5" r="19.5" fill="#EC2227"/>
<path d="M12.6492 20.6117L12.2864 20.9688L12.6501 21.3251L17.7868 26.3572L18.1362 26.6994L18.486 26.3577L28.3494 16.7231L28.7179 16.3631L28.3471 16.0055L26.931 14.6401L26.5817 14.3033L26.2346 14.6423L18.1369 22.5509L14.746 19.2354L14.3952 18.8924L14.0456 19.2366L12.6492 20.6117Z" fill="white" stroke="white"/>
</svg>
