<svg width="64" height="64" viewBox="0 0 64 64" fill="none" xmlns="http://www.w3.org/2000/svg">
<path d="M23.9389 33.0618C24.8415 33.0618 25.5732 32.3301 25.5732 31.4276C25.5732 30.525 24.8415 29.7933 23.9389 29.7933C23.0364 29.7933 22.3047 30.525 22.3047 31.4276C22.3047 32.3301 23.0364 33.0618 23.9389 33.0618Z" fill="#EC2227"/>
<path d="M48.1375 19.887C47.5252 19.887 46.9151 19.9218 46.3103 19.9916C45.5812 16.9814 43.9804 14.2395 41.6698 12.0995C38.73 9.37652 34.9031 7.87714 30.894 7.87714C23.5178 7.87714 17.2306 12.9141 15.5009 19.8911C6.92019 20.0834 0 27.1236 0 35.7494C0 44.4966 7.11606 51.6125 15.8625 51.6125H16.4057C16.6931 54.1459 18.8483 56.1212 21.4571 56.1212H42.5426C45.1514 56.1212 47.3067 54.1459 47.594 51.6125H48.1372C56.8838 51.6125 63.9997 44.4964 63.9997 35.7494C64 27.003 56.8841 19.887 48.1375 19.887ZM44.6512 51.0355C44.6512 52.2 43.7072 53.1445 42.5427 53.1445H21.4573C20.2928 53.1445 19.3488 52.2 19.3488 51.0355V47.8876C19.3488 46.7231 20.2928 45.7788 21.4573 45.7788H42.5427C43.7072 45.7788 44.6512 46.7231 44.6512 47.8876V51.0355ZM44.6512 42.0189C44.6512 43.1834 43.7072 44.1276 42.5427 44.1276H21.4573C20.2928 44.1276 19.3488 43.1834 19.3488 42.0189V38.8707C19.3488 37.7062 20.2928 36.7626 21.4573 36.7626H42.5427C43.7072 36.7626 44.6512 37.7062 44.6512 38.8707V42.0189ZM44.6512 33.0023C44.6512 34.1668 43.7072 35.1111 42.5427 35.1111H21.4573C20.2928 35.1111 19.3488 34.1668 19.3488 33.0023V29.8544C19.3488 28.6899 20.2928 27.7454 21.4573 27.7454H42.5427C43.7072 27.7454 44.6512 28.6899 44.6512 29.8544V33.0023Z" fill="#EC2227"/>
<path d="M23.9381 51.0969C24.8407 51.0969 25.5725 50.3652 25.5725 49.4625C25.5725 48.5599 24.8407 47.8281 23.9381 47.8281C23.0354 47.8281 22.3037 48.5599 22.3037 49.4625C22.3037 50.3652 23.0354 51.0969 23.9381 51.0969Z" fill="#EC2227"/>
<path d="M23.9378 42.0789C24.8403 42.0789 25.5719 41.3473 25.5719 40.4448C25.5719 39.5423 24.8403 38.8107 23.9378 38.8107C23.0353 38.8107 22.3037 39.5423 22.3037 40.4448C22.3037 41.3473 23.0353 42.0789 23.9378 42.0789Z" fill="#EC2227"/>
</svg>
