<svg width="64" height="64" viewBox="0 0 64 64" fill="none" xmlns="http://www.w3.org/2000/svg">
<path d="M34 4H6C4.89543 4 4 4.89543 4 6V30C4 31.1046 4.89543 32 6 32H34C35.1046 32 36 31.1046 36 30V6C36 4.89543 35.1046 4 34 4Z" stroke="#EC2227" stroke-width="2" stroke-miterlimit="10"/>
<path d="M4 18H36" stroke="#EC2227" stroke-width="2" stroke-miterlimit="10"/>
<path d="M8 10H12" stroke="#EC2227" stroke-width="2" stroke-miterlimit="10"/>
<path d="M22 10H26" stroke="#EC2227" stroke-width="2" stroke-miterlimit="10"/>
<path d="M28 10H32" stroke="#EC2227" stroke-width="2" stroke-miterlimit="10"/>
<path d="M8 24H12" stroke="#EC2227" stroke-width="2" stroke-miterlimit="10"/>
<path d="M22 24H26" stroke="#EC2227" stroke-width="2" stroke-miterlimit="10"/>
<path d="M28 24H32" stroke="#EC2227" stroke-width="2" stroke-miterlimit="10"/>
<path d="M58 32H30C28.8954 32 28 32.8954 28 34V58C28 59.1046 28.8954 60 30 60H58C59.1046 60 60 59.1046 60 58V34C60 32.8954 59.1046 32 58 32Z" stroke="#EC2227" stroke-width="2" stroke-miterlimit="10"/>
<path d="M28 46H60" stroke="#EC2227" stroke-width="2" stroke-miterlimit="10"/>
<path d="M32 38H36" stroke="#EC2227" stroke-width="2" stroke-miterlimit="10"/>
<path d="M46 38H50" stroke="#EC2227" stroke-width="2" stroke-miterlimit="10"/>
<path d="M52 38H56" stroke="#EC2227" stroke-width="2" stroke-miterlimit="10"/>
<path d="M32 52H36" stroke="#EC2227" stroke-width="2" stroke-miterlimit="10"/>
<path d="M46 52H50" stroke="#EC2227" stroke-width="2" stroke-miterlimit="10"/>
<path d="M52 52H56" stroke="#EC2227" stroke-width="2" stroke-miterlimit="10"/>
<path d="M42 10H50C50.5304 10 51.0391 10.2107 51.4142 10.5858C51.7893 10.9609 52 11.4696 52 12V24" stroke="#EC2227" stroke-width="2" stroke-miterlimit="10" stroke-linecap="round"/>
<path d="M46 18L52 24L58 18" stroke="#EC2227" stroke-width="2" stroke-miterlimit="10"/>
<path d="M22 54H14C13.4696 54 12.9609 53.7893 12.5858 53.4142C12.2107 53.0391 12 52.5304 12 52V40" stroke="#EC2227" stroke-width="2" stroke-miterlimit="10" stroke-linecap="round"/>
<path d="M18 46L12 40L6 46" stroke="#EC2227" stroke-width="2" stroke-miterlimit="10"/>
</svg>
