<svg width="64" height="64" viewBox="0 0 64 64" fill="none" xmlns="http://www.w3.org/2000/svg">
<path d="M20.0684 30.7663C22.8531 30.6037 25.4811 29.4243 27.4535 27.4519C29.4258 25.4795 30.6053 22.8515 30.7678 20.0669" stroke="#EC2227" stroke-width="2" stroke-linecap="round" stroke-linejoin="round"/>
<path d="M30.7678 43.9333C30.6053 41.1486 29.4258 38.5206 27.4535 36.5482C25.4811 34.5758 22.8531 33.3964 20.0684 33.2339" stroke="#EC2227" stroke-width="2" stroke-linecap="round" stroke-linejoin="round"/>
<path d="M39.8178 22.9102C38.2339 23.884 36.9129 25.2314 35.9705 26.8342C35.0281 28.4371 34.4931 30.2466 34.4123 32.1042C34.3315 33.9618 34.7074 35.8109 35.5071 37.4895C36.3068 39.1682 37.5058 40.6251 38.9992 41.7328" stroke="#EC2227" stroke-width="2" stroke-linecap="round" stroke-linejoin="round"/>
<path d="M32 44C38.6274 44 44 38.6274 44 32C44 25.3726 38.6274 20 32 20C25.3726 20 20 25.3726 20 32C20 38.6274 25.3726 44 32 44Z" stroke="#EC2227" stroke-width="2" stroke-linecap="round" stroke-linejoin="round"/>
<path d="M32 10C34.2091 10 36 8.20914 36 6C36 3.79086 34.2091 2 32 2C29.7909 2 28 3.79086 28 6C28 8.20914 29.7909 10 32 10Z" stroke="#EC2227" stroke-width="2" stroke-miterlimit="10" stroke-linecap="round"/>
<path d="M9.48486 23C11.694 23 13.4849 21.2091 13.4849 19C13.4849 16.7909 11.694 15 9.48486 15C7.27572 15 5.48486 16.7909 5.48486 19C5.48486 21.2091 7.27572 23 9.48486 23Z" stroke="#EC2227" stroke-width="2" stroke-miterlimit="10" stroke-linecap="round"/>
<path d="M9.48486 49C11.694 49 13.4849 47.2091 13.4849 45C13.4849 42.7909 11.694 41 9.48486 41C7.27572 41 5.48486 42.7909 5.48486 45C5.48486 47.2091 7.27572 49 9.48486 49Z" stroke="#EC2227" stroke-width="2" stroke-miterlimit="10" stroke-linecap="round"/>
<path d="M32 62C34.2091 62 36 60.2091 36 58C36 55.7909 34.2091 54 32 54C29.7909 54 28 55.7909 28 58C28 60.2091 29.7909 62 32 62Z" stroke="#EC2227" stroke-width="2" stroke-miterlimit="10" stroke-linecap="round"/>
<path d="M54.5161 49C56.7253 49 58.5161 47.2091 58.5161 45C58.5161 42.7909 56.7253 41 54.5161 41C52.307 41 50.5161 42.7909 50.5161 45C50.5161 47.2091 52.307 49 54.5161 49Z" stroke="#EC2227" stroke-width="2" stroke-miterlimit="10" stroke-linecap="round"/>
<path d="M54.5161 23C56.7253 23 58.5161 21.2091 58.5161 19C58.5161 16.7909 56.7253 15 54.5161 15C52.307 15 50.5161 16.7909 50.5161 19C50.5161 21.2091 52.307 23 54.5161 23Z" stroke="#EC2227" stroke-width="2" stroke-miterlimit="10" stroke-linecap="round"/>
<path d="M51.0588 17L35.4588 8" stroke="#EC2227" stroke-width="2" stroke-miterlimit="10" stroke-linecap="round"/>
<path d="M9.48004 41V23" stroke="#EC2227" stroke-width="2" stroke-miterlimit="10" stroke-linecap="round"/>
<path d="M51.0588 47L35.4588 56" stroke="#EC2227" stroke-width="2" stroke-miterlimit="10" stroke-linecap="round"/>
<path d="M54.522 41V23" stroke="#EC2227" stroke-width="2" stroke-miterlimit="10" stroke-linecap="round"/>
<path d="M28.5432 56L12.9432 47" stroke="#EC2227" stroke-width="2" stroke-miterlimit="10" stroke-linecap="round"/>
<path d="M28.5432 8L12.9432 17" stroke="#EC2227" stroke-width="2" stroke-miterlimit="10" stroke-linecap="round"/>
</svg>
